[
  {
    "request": {
      "body": "",
      "headers": [],
      "method": "get",
      "options": {
        "httpc_options": [],
        "http_options": {
          "autoredirect": "false"
        }
      },
      "request_body": "",
      "url": "https://api.twitter.com/1.1/statuses/lookup.json?oauth_signature=41%2BzxZhnM7xZX1ym5sUs5uX%2Fj0A%3D&oauth_consumer_key=S3rnbUafYq1QWOslnQ8mHfWvN&oauth_nonce=%2FuiHCUjjgqjVLOtAi7WDUzCbLWTUgl23&oauth_signature_method=HMAC-SHA1&oauth_timestamp=1522774912&oauth_version=1.0&oauth_token=295255989-R9fDKC9B1vd2HcVtKnbQv9daqef7vxub077CxMxW&id=978674197940580352&tweet_mode=extended"
    },
    "response": {
      "binary": false,
      "body": "[{\"created_at\":\"Tue Mar 27 16:44:46 +0000 2018\",\"id\":978674197940580352,\"id_str\":\"978674197940580352\",\"full_text\":\"L'emploi des mots \\u00e0 caract\\u00e8re homophobe, m\\u00eame sans mauvaise intention et quel que soit le contexte, contribue \\u00e0 banaliser l'homophobie. https:\\/\\/t.co\\/1dSXW3zVof\",\"truncated\":false,\"display_text_range\":[0,135],\"entities\":{\"hashtags\":[],\"symbols\":[],\"user_mentions\":[],\"urls\":[],\"media\":[{\"id\":978673723795496963,\"id_str\":\"978673723795496963\",\"indices\":[136,159],\"media_url\":\"http:\\/\\/pbs.twimg.com\\/media\\/DZTykQnW4AMdE02.jpg\",\"media_url_https\":\"https:\\/\\/pbs.twimg.com\\/media\\/DZTykQnW4AMdE02.jpg\",\"url\":\"https:\\/\\/t.co\\/1dSXW3zVof\",\"display_url\":\"pic.twitter.com\\/1dSXW3zVof\",\"expanded_url\":\"https:\\/\\/twitter.com\\/TheRedFag\\/status\\/978674197940580352\\/photo\\/1\",\"type\":\"photo\",\"sizes\":{\"thumb\":{\"w\":150,\"h\":150,\"resize\":\"crop\"},\"large\":{\"w\":672,\"h\":960,\"resize\":\"fit\"},\"medium\":{\"w\":672,\"h\":960,\"resize\":\"fit\"},\"small\":{\"w\":476,\"h\":680,\"resize\":\"fit\"}}}]},\"extended_entities\":{\"media\":[{\"id\":978673723795496963,\"id_str\":\"978673723795496963\",\"indices\":[136,159],\"media_url\":\"http:\\/\\/pbs.twimg.com\\/media\\/DZTykQnW4AMdE02.jpg\",\"media_url_https\":\"https:\\/\\/pbs.twimg.com\\/media\\/DZTykQnW4AMdE02.jpg\",\"url\":\"https:\\/\\/t.co\\/1dSXW3zVof\",\"display_url\":\"pic.twitter.com\\/1dSXW3zVof\",\"expanded_url\":\"https:\\/\\/twitter.com\\/TheRedFag\\/status\\/978674197940580352\\/photo\\/1\",\"type\":\"photo\",\"sizes\":{\"thumb\":{\"w\":150,\"h\":150,\"resize\":\"crop\"},\"large\":{\"w\":672,\"h\":960,\"resize\":\"fit\"},\"medium\":{\"w\":672,\"h\":960,\"resize\":\"fit\"},\"small\":{\"w\":476,\"h\":680,\"resize\":\"fit\"}}}]},\"source\":\"\\u003ca href=\\\"http:\\/\\/twitter.com\\\" rel=\\\"nofollow\\\"\\u003eTwitter Web Client\\u003c\\/a\\u003e\",\"in_reply_to_status_id\":null,\"in_reply_to_status_id_str\":null,\"in_reply_to_user_id\":null,\"in_reply_to_user_id_str\":null,\"in_reply_to_screen_name\":null,\"user\":{\"id\":490540852,\"id_str\":\"490540852\",\"name\":\"Victor\",\"screen_name\":\"TheRedFag\",\"location\":\"Rue des mauvais gar\\u00e7ons, Paris.\",\"description\":\"Go-go dancer du Lobby LGBT et Apparatchik du @PCF. J'\\u00e9tudie les homosexualit\\u00e9s \\u00e0 l'@EHESS_fr \\ud83c\\udf08 https:\\/\\/t.co\\/VE5n7L90Kh\",\"url\":\"https:\\/\\/t.co\\/fO7h3wU4wK\",\"entities\":{\"url\":{\"urls\":[{\"url\":\"https:\\/\\/t.co\\/fO7h3wU4wK\",\"expanded_url\":\"https:\\/\\/www.instagram.com\\/victorlaby\",\"display_url\":\"instagram.com\\/victorlaby\",\"indices\":[0,23]}]},\"description\":{\"urls\":[{\"url\":\"https:\\/\\/t.co\\/VE5n7L90Kh\",\"expanded_url\":\"https:\\/\\/curiouscat.me\\/RedFaggot\",\"display_url\":\"curiouscat.me\\/RedFaggot\",\"indices\":[95,118]}]}},\"protected\":false,\"followers_count\":6792,\"friends_count\":963,\"listed_count\":130,\"created_at\":\"Sun Feb 12 17:15:57 +0000 2012\",\"favourites_count\":16306,\"utc_offset\":7200,\"time_zone\":\"Paris\",\"geo_enabled\":true,\"verified\":false,\"statuses_count\":26534,\"lang\":\"fr\",\"contributors_enabled\":false,\"is_translator\":false,\"is_translation_enabled\":false,\"profile_background_color\":\"C0DEED\",\"profile_background_image_url\":\"http:\\/\\/pbs.twimg.com\\/profile_background_images\\/667455066262085632\\/l12w9lQ1.jpg\",\"profile_background_image_url_https\":\"https:\\/\\/pbs.twimg.com\\/profile_background_images\\/667455066262085632\\/l12w9lQ1.jpg\",\"profile_background_tile\":true,\"profile_image_url\":\"http:\\/\\/pbs.twimg.com\\/profile_images\\/960123073453330432\\/8QVZ-Q7M_normal.jpg\",\"profile_image_url_https\":\"https:\\/\\/pbs.twimg.com\\/profile_images\\/960123073453330432\\/8QVZ-Q7M_normal.jpg\",\"profile_banner_url\":\"https:\\/\\/pbs.twimg.com\\/profile_banners\\/490540852\\/1514646780\",\"profile_link_color\":\"1B95E0\",\"profile_sidebar_border_color\":\"000000\",\"profile_sidebar_fill_color\":\"DDEEF6\",\"profile_text_color\":\"333333\",\"profile_use_background_image\":true,\"has_extended_profile\":true,\"default_profile\":false,\"default_profile_image\":false,\"following\":false,\"follow_request_sent\":false,\"notifications\":false,\"translator_type\":\"regular\"},\"geo\":null,\"coordinates\":null,\"place\":null,\"contributors\":null,\"is_quote_status\":false,\"retweet_count\":3105,\"favorite_count\":3093,\"favorited\":false,\"retweeted\":false,\"possibly_sensitive\":false,\"lang\":\"fr\"}]",
      "headers": {
        "cache-control": "no-cache, no-store, must-revalidate, pre-check=0, post-check=0",
        "date": "Tue, 03 Apr 2018 17:01:35 GMT",
        "pragma": "no-cache",
        "server": "tsa_o",
        "content-length": "4054",
        "content-type": "application/json;charset=utf-8",
        "expires": "Tue, 31 Mar 1981 05:00:00 GMT",
        "last-modified": "Tue, 03 Apr 2018 17:01:35 GMT",
        "content-disposition": "attachment; filename=json.json",
        "set-cookie": "personalization_id=\"v1_5EIys8xaXslmy/0bxJPZSg==\"; Expires=Thu, 02 Apr 2020 17:01:35 UTC; Path=/; Domain=.twitter.com",
        "status": "200 OK",
        "strict-transport-security": "max-age=631138519",
        "x-access-level": "read-write",
        "x-connection-hash": "305285f9f810b51cf40a7f8b55a86699",
        "x-content-type-options": "nosniff",
        "x-frame-options": "SAMEORIGIN",
        "x-rate-limit-limit": "900",
        "x-rate-limit-remaining": "895",
        "x-rate-limit-reset": "1522775585",
        "x-response-time": "155",
        "x-transaction": "0056d36100aae626",
        "x-twitter-response-tags": "BouncerCompliant",
        "x-xss-protection": "1; mode=block; report=https://twitter.com/i/xss_report"
      },
      "status_code": [
        "HTTP/1.1",
        200,
        "OK"
      ],
      "type": "ok"
    }
  }
]